EESchema Schematic File Version 2
LIBS:power
LIBS:device
LIBS:transistors
LIBS:conn
LIBS:linear
LIBS:regul
LIBS:74xx
LIBS:cmos4000
LIBS:adc-dac
LIBS:memory
LIBS:xilinx
LIBS:microcontrollers
LIBS:dsp
LIBS:microchip
LIBS:analog_switches
LIBS:motorola
LIBS:texas
LIBS:intel
LIBS:audio
LIBS:interface
LIBS:digital-audio
LIBS:philips
LIBS:display
LIBS:cypress
LIBS:siliconi
LIBS:opto
LIBS:atmel
LIBS:contrib
LIBS:valves
LIBS:ECI-cache
EELAYER 25 0
EELAYER END
$Descr A4 11693 8268
encoding utf-8
Sheet 4 6
Title ""
Date ""
Rev ""
Comp ""
Comment1 ""
Comment2 ""
Comment3 ""
Comment4 ""
$EndDescr
$Comp
L DRV8835 U6
U 1 1 5548CDC3
P 5750 2550
F 0 "U6" H 5800 2600 60  0001 C CNN
F 1 "DRV8835" H 5750 2550 60  0001 C CNN
F 2 "Sockets_DIP:DIP-14__300" H 5750 2550 60  0001 C CNN
F 3 "" H 5550 2450 60  0000 C CNN
F 4 "U" H 5700 2950 60  0000 C CNN "Reference"
F 5 "DRV8835" H 5700 2850 60  0000 C CNN "Value"
F 6 "" H 5550 2450 60  0000 C CNN "Footprint"
	1    5750 2550
	1    0    0    -1  
$EndComp
$Comp
L VCC #PWR024
U 1 1 5548D0E7
P 5000 2350
F 0 "#PWR024" H 5050 2400 60  0001 C CNN
F 1 "VCC" H 5000 2350 60  0001 C CNN
F 2 "" H 5000 2350 60  0001 C CNN
F 3 "" H 5000 2350 60  0000 C CNN
F 4 "#PWR" H 5000 2200 50  0001 C CNN "Reference"
F 5 "VCC" H 5000 2500 50  0000 C CNN "Value"
F 6 "" H 5000 2350 60  0000 C CNN "Footprint"
	1    5000 2350
	1    0    0    -1  
$EndComp
NoConn ~ 6250 3000
$Comp
L GND #PWR025
U 1 1 5548D317
P 5100 3050
F 0 "#PWR025" H 5150 3100 60  0001 C CNN
F 1 "GND" H 5100 3050 60  0001 C CNN
F 2 "" H 5100 3050 60  0001 C CNN
F 3 "" H 5100 3050 60  0000 C CNN
F 4 "#PWR" H 5100 2800 50  0001 C CNN "Reference"
F 5 "GND" H 5100 2900 50  0000 C CNN "Value"
F 6 "" H 5100 3050 60  0000 C CNN "Footprint"
	1    5100 3050
	1    0    0    -1  
$EndComp
Text Label 6550 2500 2    60   ~ 0
Bat+
Text Label 6550 2400 2    60   ~ 0
Bat-
$Comp
L GND #PWR026
U 1 1 5548D543
P 6600 2400
F 0 "#PWR026" H 6650 2450 60  0001 C CNN
F 1 "GND" H 6600 2400 60  0001 C CNN
F 2 "" H 6600 2400 60  0001 C CNN
F 3 "" H 6600 2400 60  0000 C CNN
F 4 "#PWR" H 6600 2150 50  0001 C CNN "Reference"
F 5 "GND" H 6600 2250 50  0000 C CNN "Value"
F 6 "" H 6600 2400 60  0000 C CNN "Footprint"
	1    6600 2400
	0    -1   -1   0   
$EndComp
Text HLabel 4500 2800 0    60   Input ~ 0
myDAQ_SP_M1
Text HLabel 4500 2900 0    60   Input ~ 0
myDAQ_DIR_M1
Text HLabel 4500 2600 0    60   Input ~ 0
myDAQ_SP_M2
Text HLabel 4500 2700 0    60   Input ~ 0
myDAQ_DIR_M2
Text Label 4600 2800 0    60   ~ 0
M_SP_M1
Text Label 4600 2900 0    60   ~ 0
M_DIR_M1
Text Label 4600 2600 0    60   ~ 0
M_SP_M2
Text Label 4600 2700 0    60   ~ 0
M_DIR_M2
Text Label 6700 2800 2    60   ~ 0
OUT2_M1
Text Label 6700 2900 2    60   ~ 0
OUT1_M1
Text Label 6700 2600 2    60   ~ 0
OUT2_M2
Text Label 6700 2700 2    60   ~ 0
OUT1_M2
Text Label 2850 2750 2    60   ~ 0
Bat-
Text Label 1450 2750 0    60   ~ 0
Bat+
Text Label 2850 2650 2    60   ~ 0
OUT1_M2
Text Label 1450 2650 0    60   ~ 0
OUT2_M2
Text Label 2850 2550 2    60   ~ 0
OUT1_M1
Text Label 1450 2550 0    60   ~ 0
OUT2_M1
$Comp
L R R16
U 1 1 554BD6E6
P 8450 3500
F 0 "R16" V 8550 3500 60  0000 C CNN
F 1 "10k" V 8450 3500 60  0000 C CNN
F 2 "Resistors_SMD:R_1206" H 8450 3500 60  0001 C CNN
F 3 "" H 8450 3500 30  0000 C CNN
	1    8450 3500
	1    0    0    -1  
$EndComp
Text Label 7600 2100 0    60   ~ 0
OUT2_M2
Text Label 7600 3200 0    60   ~ 0
OUT1_M2
$Comp
L GND #PWR027
U 1 1 554BD7B8
P 8650 3800
F 0 "#PWR027" H 8700 3850 60  0001 C CNN
F 1 "GND" H 8650 3800 60  0001 C CNN
F 2 "" H 8650 3800 60  0001 C CNN
F 3 "" H 8650 3800 60  0000 C CNN
F 4 "#PWR" H 8650 3550 50  0001 C CNN "Reference"
F 5 "GND" H 8650 3650 50  0000 C CNN "Value"
F 6 "" H 8650 3800 60  0000 C CNN "Footprint"
	1    8650 3800
	1    0    0    -1  
$EndComp
$Comp
L GND #PWR028
U 1 1 554BD9A6
P 8650 2700
F 0 "#PWR028" H 8700 2750 60  0001 C CNN
F 1 "GND" H 8650 2700 60  0001 C CNN
F 2 "" H 8650 2700 60  0001 C CNN
F 3 "" H 8650 2700 60  0000 C CNN
F 4 "#PWR" H 8650 2450 50  0001 C CNN "Reference"
F 5 "GND" H 8650 2550 50  0000 C CNN "Value"
F 6 "" H 8650 2700 60  0000 C CNN "Footprint"
	1    8650 2700
	1    0    0    -1  
$EndComp
Text Label 9300 3200 2    60   ~ 0
BEMF1
Text Label 9300 2100 2    60   ~ 0
BEMF2
Text HLabel 9500 2100 2    60   Input ~ 0
BEMF2_myDAQ
Text HLabel 9500 3200 2    60   Input ~ 0
BEMF1_myDAQ
Wire Wire Line
	5100 2400 5000 2400
Wire Wire Line
	5000 2350 5000 2500
Wire Wire Line
	5000 2500 5100 2500
Connection ~ 5000 2400
Wire Wire Line
	5100 3000 5100 3050
Wire Wire Line
	6250 2500 6550 2500
Wire Wire Line
	6250 2400 6600 2400
Wire Wire Line
	4500 2800 5100 2800
Wire Wire Line
	4500 2700 5100 2700
Wire Wire Line
	4500 2600 5100 2600
Wire Wire Line
	4500 2900 5100 2900
Wire Wire Line
	6700 2600 6250 2600
Wire Wire Line
	6700 2700 6250 2700
Wire Wire Line
	6700 2800 6250 2800
Wire Wire Line
	6700 2900 6250 2900
Wire Wire Line
	1450 2550 1900 2550
Wire Wire Line
	2400 2550 2850 2550
Wire Wire Line
	1900 2650 1450 2650
Wire Wire Line
	1900 2750 1450 2750
Wire Wire Line
	2400 2750 2850 2750
Wire Wire Line
	2400 2650 2850 2650
Wire Wire Line
	8450 3650 8450 3750
Wire Wire Line
	8450 3750 8850 3750
Wire Wire Line
	8850 3750 8850 3650
Wire Wire Line
	8650 3800 8650 3750
Connection ~ 8650 3750
Wire Wire Line
	8850 3200 8850 3350
Wire Wire Line
	8350 3200 9500 3200
Connection ~ 8450 3200
Wire Wire Line
	8450 2550 8450 2650
Wire Wire Line
	8450 2650 8850 2650
Wire Wire Line
	8850 2650 8850 2550
Wire Wire Line
	8850 2100 8850 2250
Wire Wire Line
	8350 2100 9500 2100
Connection ~ 8450 2100
Wire Wire Line
	8650 2650 8650 2700
Connection ~ 8650 2650
Wire Wire Line
	8450 2100 8450 2250
Wire Wire Line
	8450 3200 8450 3350
Wire Wire Line
	7600 3200 8050 3200
Wire Wire Line
	7600 2100 8050 2100
Connection ~ 8850 2100
Connection ~ 8850 3200
$Comp
L R R15
U 1 1 554FA50C
P 8450 2400
F 0 "R15" V 8530 2400 50  0000 C CNN
F 1 "10k" V 8450 2400 50  0000 C CNN
F 2 "Resistors_SMD:R_1206" V 8380 2400 30  0001 C CNN
F 3 "" H 8450 2400 30  0000 C CNN
	1    8450 2400
	1    0    0    -1  
$EndComp
$Comp
L R R13
U 1 1 554FE366
P 8200 2100
F 0 "R13" V 8280 2100 50  0000 C CNN
F 1 "22k" V 8200 2100 50  0000 C CNN
F 2 "Resistors_SMD:R_1206" V 8130 2100 30  0001 C CNN
F 3 "" H 8200 2100 30  0000 C CNN
	1    8200 2100
	0    1    1    0   
$EndComp
$Comp
L R R14
U 1 1 554FE396
P 8200 3200
F 0 "R14" V 8280 3200 50  0000 C CNN
F 1 "22k" V 8200 3200 50  0000 C CNN
F 2 "Resistors_SMD:R_1206" V 8130 3200 30  0001 C CNN
F 3 "" H 8200 3200 30  0000 C CNN
	1    8200 3200
	0    1    1    0   
$EndComp
$Comp
L C C10
U 1 1 554FE410
P 8850 2400
F 0 "C10" H 8875 2500 50  0000 L CNN
F 1 "0.1u" H 8875 2300 50  0000 L CNN
F 2 "Capacitors_SMD:C_0805" H 8888 2250 30  0001 C CNN
F 3 "" H 8850 2400 60  0000 C CNN
	1    8850 2400
	1    0    0    -1  
$EndComp
$Comp
L C C11
U 1 1 554FE45C
P 8850 3500
F 0 "C11" H 8875 3600 50  0000 L CNN
F 1 "0.1u" H 8875 3400 50  0000 L CNN
F 2 "Capacitors_SMD:C_0805" H 8888 3350 30  0001 C CNN
F 3 "" H 8850 3500 60  0000 C CNN
	1    8850 3500
	1    0    0    -1  
$EndComp
$Comp
L CONN_02X03 P1
U 1 1 554FE5DA
P 2150 2650
F 0 "P1" H 2150 2850 50  0000 C CNN
F 1 "DC_Motor" H 2150 2450 50  0000 C CNN
F 2 "Pin_Headers:Pin_Header_Straight_2x03" H 2150 1450 60  0001 C CNN
F 3 "" H 2150 1450 60  0000 C CNN
	1    2150 2650
	1    0    0    -1  
$EndComp
$EndSCHEMATC
