EESchema Schematic File Version 2
LIBS:power
LIBS:device
LIBS:transistors
LIBS:conn
LIBS:linear
LIBS:regul
LIBS:74xx
LIBS:cmos4000
LIBS:adc-dac
LIBS:memory
LIBS:xilinx
LIBS:microcontrollers
LIBS:dsp
LIBS:microchip
LIBS:analog_switches
LIBS:motorola
LIBS:texas
LIBS:intel
LIBS:audio
LIBS:interface
LIBS:digital-audio
LIBS:philips
LIBS:display
LIBS:cypress
LIBS:siliconi
LIBS:opto
LIBS:atmel
LIBS:contrib
LIBS:valves
LIBS:ECI-cache
EELAYER 25 0
EELAYER END
$Descr A4 11693 8268
encoding utf-8
Sheet 2 6
Title ""
Date ""
Rev ""
Comp ""
Comment1 ""
Comment2 ""
Comment3 ""
Comment4 ""
$EndDescr
$Comp
L R R4
U 1 1 55417584
P 5650 2050
F 0 "R4" V 5730 2050 50  0000 C CNN
F 1 "2.1k" V 5650 2050 50  0000 C CNN
F 2 "Resistors_SMD:R_1206" V 5580 2050 30  0001 C CNN
F 3 "" H 5650 2050 30  0000 C CNN
	1    5650 2050
	0    1    1    0   
$EndComp
$Comp
L R R1
U 1 1 554178D7
P 3350 2300
F 0 "R1" V 3430 2300 50  0000 C CNN
F 1 "1k" V 3350 2300 50  0000 C CNN
F 2 "Resistors_SMD:R_1206" V 3280 2300 30  0001 C CNN
F 3 "" H 3350 2300 30  0000 C CNN
	1    3350 2300
	1    0    0    -1  
$EndComp
$Comp
L R R2
U 1 1 5541792F
P 3350 3050
F 0 "R2" V 3430 3050 50  0000 C CNN
F 1 "1k" V 3350 3050 50  0000 C CNN
F 2 "Resistors_SMD:R_1206" V 3280 3050 30  0001 C CNN
F 3 "" H 3350 3050 30  0000 C CNN
	1    3350 3050
	1    0    0    -1  
$EndComp
$Comp
L D D1
U 1 1 55417980
P 5500 2300
F 0 "D1" H 5500 2400 50  0000 C CNN
F 1 "D" H 5500 2200 50  0000 C CNN
F 2 "Lib:DO123ab" H 5500 2300 60  0001 C CNN
F 3 "" H 5500 2300 60  0000 C CNN
	1    5500 2300
	1    0    0    -1  
$EndComp
$Comp
L D D2
U 1 1 554179B8
P 5500 2600
F 0 "D2" H 5500 2700 50  0000 C CNN
F 1 "D" H 5500 2500 50  0000 C CNN
F 2 "Lib:DO123ab" H 5500 2600 60  0001 C CNN
F 3 "" H 5500 2600 60  0000 C CNN
	1    5500 2600
	-1   0    0    1   
$EndComp
$Comp
L GND #PWR01
U 1 1 55417FBD
P 3350 3450
F 0 "#PWR01" H 3400 3500 60  0001 C CNN
F 1 "GND" H 3350 3450 60  0001 C CNN
F 2 "" H 3350 3450 60  0001 C CNN
F 3 "" H 3350 3450 60  0000 C CNN
F 4 "#PWR" H 3350 3200 50  0001 C CNN "Reference"
F 5 "GND" H 3350 3300 50  0000 C CNN "Value"
F 6 "" H 3350 3450 60  0000 C CNN "Footprint"
	1    3350 3450
	1    0    0    -1  
$EndComp
$Comp
L VCC #PWR02
U 1 1 5541804D
P 3350 1950
F 0 "#PWR02" H 3400 2000 60  0001 C CNN
F 1 "VCC" H 3350 1950 60  0001 C CNN
F 2 "" H 3350 1950 60  0001 C CNN
F 3 "" H 3350 1950 60  0000 C CNN
F 4 "#PWR" H 3350 1800 50  0001 C CNN "Reference"
F 5 "VCC" H 3350 2100 50  0000 C CNN "Value"
F 6 "" H 3350 1950 60  0000 C CNN "Footprint"
	1    3350 1950
	1    0    0    -1  
$EndComp
$Comp
L LMV344 U1
U 1 1 55419CF0
P 5950 4550
F 0 "U1" H 6000 4600 60  0001 C CNN
F 1 "LMV344" H 5950 4550 60  0001 C CNN
F 2 "SMD_Packages:SOIC-14_N" H 5950 4550 60  0001 C CNN
F 3 "" H 5950 4550 60  0000 C CNN
F 4 "U" V 6000 4900 60  0000 C CNN "Reference"
F 5 "LMV344" V 6000 4600 60  0000 C CNN "Value"
F 6 "" H 5950 4550 60  0000 C CNN "Footprint"
	1    5950 4550
	1    0    0    -1  
$EndComp
Text Label 4050 2650 0    60   ~ 0
1in+
Text Label 5250 4450 2    60   ~ 0
1in+
Text Label 7750 2100 2    60   ~ 0
R1+
Text Label 7750 1850 2    60   ~ 0
R1-
Text Label 7750 2900 2    60   ~ 0
R2+
Text Label 7750 2650 2    60   ~ 0
R2-
Text Label 7750 3700 2    60   ~ 0
R3+
Text Label 7750 3500 2    60   ~ 0
R3-
$Comp
L TPL0501 U2
U 1 1 5541D9E2
P 8350 1950
F 0 "U2" H 8400 2000 60  0001 C CNN
F 1 "TPL0501" H 8350 1950 60  0001 C CNN
F 2 "SMD_Packages:SOT-886" H 8350 1950 60  0001 C CNN
F 3 "" H 8350 1950 60  0000 C CNN
F 4 "U" H 8350 1700 60  0000 C CNN "Reference"
F 5 "TPL0501" V 8350 1950 60  0000 C CNN "Value"
F 6 "" H 8350 1950 60  0000 C CNN "Footprint"
	1    8350 1950
	1    0    0    -1  
$EndComp
$Comp
L TPL0501 U3
U 1 1 5541DA05
P 8350 2750
F 0 "U3" H 8400 2800 60  0001 C CNN
F 1 "TPL0501" H 8350 2750 60  0001 C CNN
F 2 "SMD_Packages:SOT-886" H 8350 2750 60  0001 C CNN
F 3 "" H 8350 2750 60  0000 C CNN
F 4 "U" H 8350 2500 60  0000 C CNN "Reference"
F 5 "TPL0501" V 8350 2750 60  0000 C CNN "Value"
F 6 "" H 8350 2750 60  0000 C CNN "Footprint"
	1    8350 2750
	1    0    0    -1  
$EndComp
$Comp
L TPL0501 U4
U 1 1 5541DA28
P 8350 3550
F 0 "U4" H 8400 3600 60  0001 C CNN
F 1 "TPL0501" H 8350 3550 60  0001 C CNN
F 2 "SMD_Packages:SOT-886" H 8350 3550 60  0001 C CNN
F 3 "" H 8350 3550 60  0000 C CNN
F 4 "U" H 8350 3300 60  0000 C CNN "Reference"
F 5 "TPL0501" V 8350 3550 60  0000 C CNN "Value"
F 6 "" H 8350 3550 60  0000 C CNN "Footprint"
	1    8350 3550
	1    0    0    -1  
$EndComp
$Comp
L VCC #PWR03
U 1 1 5541E59B
P 8800 2500
F 0 "#PWR03" H 8850 2550 60  0001 C CNN
F 1 "VCC" H 8800 2500 60  0001 C CNN
F 2 "" H 8800 2500 60  0001 C CNN
F 3 "" H 8800 2500 60  0000 C CNN
F 4 "#PWR" H 8800 2350 50  0001 C CNN "Reference"
F 5 "VCC" H 8800 2650 50  0000 C CNN "Value"
F 6 "" H 8800 2500 60  0000 C CNN "Footprint"
	1    8800 2500
	1    0    0    -1  
$EndComp
$Comp
L VCC #PWR04
U 1 1 5541E5BE
P 8800 1650
F 0 "#PWR04" H 8850 1700 60  0001 C CNN
F 1 "VCC" H 8800 1650 60  0001 C CNN
F 2 "" H 8800 1650 60  0001 C CNN
F 3 "" H 8800 1650 60  0000 C CNN
F 4 "#PWR" H 8800 1500 50  0001 C CNN "Reference"
F 5 "VCC" H 8800 1800 50  0000 C CNN "Value"
F 6 "" H 8800 1650 60  0000 C CNN "Footprint"
	1    8800 1650
	1    0    0    -1  
$EndComp
$Comp
L GND #PWR05
U 1 1 5541E6B7
P 8900 1950
F 0 "#PWR05" H 8950 2000 60  0001 C CNN
F 1 "GND" H 8900 1950 60  0001 C CNN
F 2 "" H 8900 1950 60  0001 C CNN
F 3 "" H 8900 1950 60  0000 C CNN
F 4 "#PWR" H 8900 1700 50  0001 C CNN "Reference"
F 5 "GND" H 8900 1800 50  0000 C CNN "Value"
F 6 "" H 8900 1950 60  0000 C CNN "Footprint"
	1    8900 1950
	0    -1   -1   0   
$EndComp
$Comp
L GND #PWR06
U 1 1 5541E6DA
P 8900 2750
F 0 "#PWR06" H 8950 2800 60  0001 C CNN
F 1 "GND" H 8900 2750 60  0001 C CNN
F 2 "" H 8900 2750 60  0001 C CNN
F 3 "" H 8900 2750 60  0000 C CNN
F 4 "#PWR" H 8900 2500 50  0001 C CNN "Reference"
F 5 "GND" H 8900 2600 50  0000 C CNN "Value"
F 6 "" H 8900 2750 60  0000 C CNN "Footprint"
	1    8900 2750
	0    -1   -1   0   
$EndComp
$Comp
L VCC #PWR07
U 1 1 5541E7B2
P 8800 3300
F 0 "#PWR07" H 8850 3350 60  0001 C CNN
F 1 "VCC" H 8800 3300 60  0001 C CNN
F 2 "" H 8800 3300 60  0001 C CNN
F 3 "" H 8800 3300 60  0000 C CNN
F 4 "#PWR" H 8800 3150 50  0001 C CNN "Reference"
F 5 "VCC" H 8800 3450 50  0000 C CNN "Value"
F 6 "" H 8800 3300 60  0000 C CNN "Footprint"
	1    8800 3300
	1    0    0    -1  
$EndComp
$Comp
L GND #PWR08
U 1 1 5541E7D5
P 8900 3550
F 0 "#PWR08" H 8950 3600 60  0001 C CNN
F 1 "GND" H 8900 3550 60  0001 C CNN
F 2 "" H 8900 3550 60  0001 C CNN
F 3 "" H 8900 3550 60  0000 C CNN
F 4 "#PWR" H 8900 3300 50  0001 C CNN "Reference"
F 5 "GND" H 8900 3400 50  0000 C CNN "Value"
F 6 "" H 8900 3550 60  0000 C CNN "Footprint"
	1    8900 3550
	0    -1   -1   0   
$EndComp
Text HLabel 8150 4700 0    60   Input ~ 0
DIN
Text HLabel 8150 4900 0    60   Input ~ 0
SCLK
Text HLabel 8150 5100 0    60   Input ~ 0
NCS_FQ
Text HLabel 8150 5300 0    60   Input ~ 0
NCS_G
Text Label 8250 5300 0    60   ~ 0
NCS_G
Text Label 8250 5100 0    60   ~ 0
NCS_FQ
Text Label 8950 2100 0    60   ~ 0
NCS_FQ
Text Label 8950 2900 0    60   ~ 0
NCS_FQ
Text Label 8900 3700 0    60   ~ 0
NCS_G
$Comp
L VCC #PWR09
U 1 1 5541F7BD
P 8050 4400
F 0 "#PWR09" H 8100 4450 60  0001 C CNN
F 1 "VCC" H 8050 4400 60  0001 C CNN
F 2 "" H 8050 4400 60  0001 C CNN
F 3 "" H 8050 4400 60  0000 C CNN
F 4 "#PWR" H 8050 4250 50  0001 C CNN "Reference"
F 5 "VCC" H 8050 4550 50  0000 C CNN "Value"
F 6 "" H 8050 4400 60  0000 C CNN "Footprint"
	1    8050 4400
	1    0    0    -1  
$EndComp
Text Label 8450 4700 0    60   ~ 0
DIN
Text Label 8850 4700 0    60   ~ 0
SCLK
Text Label 8900 3850 0    60   ~ 0
DIN
Text Label 8900 3050 0    60   ~ 0
DIN
Text Label 8900 2250 0    60   ~ 0
DIN
Text Label 7850 3850 2    60   ~ 0
SCLK
Text Label 7850 3050 2    60   ~ 0
SCLK
Text Label 7850 2250 2    60   ~ 0
SCLK
Text Label 3750 4000 0    60   ~ 0
R1-
Text Label 3550 4000 2    60   ~ 0
R1+
Text Label 3450 4600 3    60   ~ 0
R2-
Text Label 3450 4350 1    60   ~ 0
R2+
$Comp
L R R3
U 1 1 554225F3
P 5200 2900
F 0 "R3" V 5280 2900 50  0000 C CNN
F 1 "1k" V 5200 2900 50  0000 C CNN
F 2 "Resistors_SMD:R_1206" V 5130 2900 30  0001 C CNN
F 3 "" H 5200 2900 30  0000 C CNN
	1    5200 2900
	-1   0    0    1   
$EndComp
Text Label 5900 2450 2    60   ~ 0
R3+
Text Label 6150 2450 0    60   ~ 0
R3-
Text Label 5000 2050 2    60   ~ 0
2in-
Text Label 3000 4150 2    60   ~ 0
2in+
Text Label 5300 4600 2    60   ~ 0
2in+
Text Label 5300 4700 2    60   ~ 0
2in-
$Comp
L VCC #PWR010
U 1 1 5547FB5B
P 7150 3800
F 0 "#PWR010" H 7200 3850 60  0001 C CNN
F 1 "VCC" H 7150 3800 60  0001 C CNN
F 2 "" H 7150 3800 60  0001 C CNN
F 3 "" H 7150 3800 60  0000 C CNN
F 4 "#PWR" H 7150 3650 50  0001 C CNN "Reference"
F 5 "VCC" H 7150 3950 50  0000 C CNN "Value"
F 6 "" H 7150 3800 60  0000 C CNN "Footprint"
	1    7150 3800
	1    0    0    -1  
$EndComp
$Comp
L GND #PWR011
U 1 1 5547FB82
P 7150 4200
F 0 "#PWR011" H 7200 4250 60  0001 C CNN
F 1 "GND" H 7150 4200 60  0001 C CNN
F 2 "" H 7150 4200 60  0001 C CNN
F 3 "" H 7150 4200 60  0000 C CNN
F 4 "#PWR" H 7150 3950 50  0001 C CNN "Reference"
F 5 "GND" H 7150 4050 50  0000 C CNN "Value"
F 6 "" H 7150 4200 60  0000 C CNN "Footprint"
	1    7150 4200
	1    0    0    -1  
$EndComp
NoConn ~ 6600 4000
NoConn ~ 6600 4100
NoConn ~ 6600 4200
NoConn ~ 6600 4350
NoConn ~ 6600 4450
NoConn ~ 6600 4550
$Comp
L VCC #PWR012
U 1 1 5547FDF7
P 5300 4000
F 0 "#PWR012" H 5350 4050 60  0001 C CNN
F 1 "VCC" H 5300 4000 60  0001 C CNN
F 2 "" H 5300 4000 60  0001 C CNN
F 3 "" H 5300 4000 60  0000 C CNN
F 4 "#PWR" H 5300 3850 50  0001 C CNN "Reference"
F 5 "VCC" H 5300 4150 50  0000 C CNN "Value"
F 6 "" H 5300 4000 60  0000 C CNN "Footprint"
	1    5300 4000
	1    0    0    -1  
$EndComp
$Comp
L GND #PWR013
U 1 1 5547FE1F
P 5350 4100
F 0 "#PWR013" H 5400 4150 60  0001 C CNN
F 1 "GND" H 5350 4100 60  0001 C CNN
F 2 "" H 5350 4100 60  0001 C CNN
F 3 "" H 5350 4100 60  0000 C CNN
F 4 "#PWR" H 5350 3850 50  0001 C CNN "Reference"
F 5 "GND" H 5350 3950 50  0000 C CNN "Value"
F 6 "" H 5350 4100 60  0000 C CNN "Footprint"
	1    5350 4100
	0    1    1    0   
$EndComp
Text HLabel 8150 5500 0    60   Input ~ 0
OUTOsc
Text Label 8300 5500 0    60   ~ 0
OutOsc
Text Label 6400 2300 0    60   ~ 0
OutOsc
Text Label 4250 4000 0    60   ~ 0
OutOsc
$Comp
L R R5
U 1 1 554FA5E4
P 8350 4550
F 0 "R5" V 8430 4550 50  0000 C CNN
F 1 "4.7k" V 8350 4550 50  0000 C CNN
F 2 "Resistors_SMD:R_1206" V 8280 4550 30  0001 C CNN
F 3 "" H 8350 4550 30  0000 C CNN
	1    8350 4550
	1    0    0    -1  
$EndComp
$Comp
L R R6
U 1 1 554FA64D
P 8700 4550
F 0 "R6" V 8780 4550 50  0000 C CNN
F 1 "4.7k" V 8700 4550 50  0000 C CNN
F 2 "Resistors_SMD:R_1206" V 8630 4550 30  0001 C CNN
F 3 "" H 8700 4550 30  0000 C CNN
	1    8700 4550
	1    0    0    -1  
$EndComp
$Comp
L C C2
U 1 1 554FB230
P 3750 3050
F 0 "C2" H 3775 3150 50  0000 L CNN
F 1 "10u" H 3775 2950 50  0000 L CNN
F 2 "Capacitors_SMD:C_0805" H 3788 2900 30  0001 C CNN
F 3 "" H 3750 3050 60  0000 C CNN
	1    3750 3050
	1    0    0    -1  
$EndComp
$Comp
L C C4
U 1 1 554FC43C
P 7150 4000
F 0 "C4" H 7175 4100 50  0000 L CNN
F 1 "0.01u" H 7175 3900 50  0000 L CNN
F 2 "Capacitors_SMD:C_0805" H 7188 3850 30  0001 C CNN
F 3 "" H 7150 4000 60  0000 C CNN
	1    7150 4000
	1    0    0    -1  
$EndComp
Text Label 5300 4800 2    60   ~ 0
OutOsc
$Comp
L +2V5 #PWR014
U 1 1 55533B32
P 3300 5050
F 0 "#PWR014" H 3300 4900 50  0001 C CNN
F 1 "+2V5" H 3300 5190 50  0000 C CNN
F 2 "" H 3300 5050 60  0000 C CNN
F 3 "" H 3300 5050 60  0000 C CNN
	1    3300 5050
	-1   0    0    1   
$EndComp
$Comp
L +2V5 #PWR015
U 1 1 55533BEF
P 5200 3150
F 0 "#PWR015" H 5200 3000 50  0001 C CNN
F 1 "+2V5" H 5200 3290 50  0000 C CNN
F 2 "" H 5200 3150 60  0000 C CNN
F 3 "" H 5200 3150 60  0000 C CNN
	1    5200 3150
	-1   0    0    1   
$EndComp
Wire Wire Line
	3350 2450 3350 2900
Wire Wire Line
	3350 3200 3350 3450
Wire Wire Line
	3350 2150 3350 1950
Wire Wire Line
	4050 2650 3350 2650
Connection ~ 3350 2650
Connection ~ 3750 2650
Wire Wire Line
	3750 3350 3350 3350
Connection ~ 3350 3350
Wire Wire Line
	5250 4450 5400 4450
Wire Wire Line
	4900 4000 4900 4250
Wire Wire Line
	4900 4250 5400 4250
Wire Wire Line
	5350 4250 5350 4350
Connection ~ 5350 4250
Connection ~ 5350 4350
Wire Wire Line
	5350 4350 5400 4350
Wire Wire Line
	7900 1800 7850 1800
Wire Wire Line
	7850 1800 7850 1950
Wire Wire Line
	7850 1950 7900 1950
Wire Wire Line
	7900 2600 7850 2600
Wire Wire Line
	7850 2600 7850 2750
Wire Wire Line
	7850 2750 7900 2750
Wire Wire Line
	7900 3400 7850 3400
Wire Wire Line
	7850 3400 7850 3550
Wire Wire Line
	7850 3550 7900 3550
Wire Wire Line
	7750 3500 7850 3500
Connection ~ 7850 3500
Wire Wire Line
	7750 3700 7900 3700
Wire Wire Line
	7750 2900 7900 2900
Wire Wire Line
	7750 2650 7850 2650
Connection ~ 7850 2650
Wire Wire Line
	7750 2100 7900 2100
Wire Wire Line
	7750 1850 7850 1850
Connection ~ 7850 1850
Wire Wire Line
	8800 1800 8800 1650
Wire Wire Line
	8800 2600 8800 2500
Wire Wire Line
	8800 2750 8900 2750
Wire Wire Line
	8800 1950 8900 1950
Wire Wire Line
	8800 3550 8900 3550
Wire Wire Line
	8800 3400 8800 3300
Wire Wire Line
	8250 5100 8150 5100
Wire Wire Line
	8150 5300 8250 5300
Wire Wire Line
	8950 2100 8800 2100
Wire Wire Line
	8950 2900 8800 2900
Wire Wire Line
	8700 4900 8150 4900
Connection ~ 8350 4400
Wire Wire Line
	8700 4800 8850 4800
Wire Wire Line
	8850 4800 8850 4700
Connection ~ 8700 4800
Wire Wire Line
	8250 4800 8450 4800
Wire Wire Line
	8450 4800 8450 4700
Wire Wire Line
	8150 4700 8250 4700
Wire Wire Line
	8250 4700 8250 4800
Connection ~ 8350 4800
Wire Wire Line
	7850 2250 7900 2250
Wire Wire Line
	7850 3050 7900 3050
Wire Wire Line
	7850 3850 7900 3850
Wire Wire Line
	8900 3850 8800 3850
Wire Wire Line
	8800 3050 8900 3050
Wire Wire Line
	8900 2250 8800 2250
Wire Wire Line
	8800 3700 8900 3700
Wire Notes Line
	3550 3950 3550 4050
Wire Notes Line
	3550 4050 3750 4050
Wire Notes Line
	3750 4050 3750 3950
Wire Notes Line
	3750 3950 3550 3950
Wire Wire Line
	3750 4000 3850 4000
Wire Notes Line
	3400 4350 3400 4600
Wire Notes Line
	3400 4600 3500 4600
Wire Notes Line
	3500 4600 3500 4350
Wire Notes Line
	3500 4350 3400 4350
Wire Wire Line
	3150 4650 3150 4800
Wire Wire Line
	3150 4800 3450 4800
Wire Wire Line
	3450 4800 3450 4600
Wire Wire Line
	3450 4150 3450 4350
Wire Wire Line
	3000 4150 3450 4150
Wire Wire Line
	3150 4150 3150 4350
Wire Wire Line
	3300 4150 3300 4000
Wire Wire Line
	3300 4000 3550 4000
Connection ~ 3300 4150
Wire Wire Line
	3300 4800 3300 5050
Connection ~ 3300 4800
Wire Wire Line
	5300 4800 5400 4800
Wire Notes Line
	5900 2400 5900 2500
Wire Notes Line
	5900 2500 6150 2500
Wire Notes Line
	6150 2500 6150 2400
Wire Notes Line
	6150 2400 5900 2400
Wire Wire Line
	5900 2450 5700 2450
Wire Wire Line
	5700 2300 5700 2600
Wire Wire Line
	5700 2300 5650 2300
Wire Wire Line
	5700 2600 5650 2600
Connection ~ 5700 2450
Wire Wire Line
	5350 2300 5200 2300
Wire Wire Line
	5200 2050 5200 2750
Wire Wire Line
	5350 2600 5200 2600
Connection ~ 5200 2600
Wire Wire Line
	5000 2050 5500 2050
Connection ~ 5200 2300
Wire Wire Line
	5800 2050 6350 2050
Wire Wire Line
	6350 2050 6350 2450
Wire Wire Line
	6350 2450 6150 2450
Connection ~ 6350 2300
Connection ~ 5200 2050
Connection ~ 3150 4150
Wire Wire Line
	5300 4700 5400 4700
Wire Wire Line
	5300 4600 5400 4600
Wire Wire Line
	7150 4150 7150 4200
Wire Wire Line
	7150 3850 7150 3800
Wire Wire Line
	5400 4100 5350 4100
Wire Wire Line
	5400 4000 5300 4000
Wire Wire Line
	8150 5500 8300 5500
Wire Wire Line
	6400 2300 6350 2300
Wire Wire Line
	4250 4000 4150 4000
Connection ~ 8700 4400
Wire Wire Line
	8350 4700 8350 4800
Wire Wire Line
	8700 4700 8700 4900
Wire Wire Line
	8050 4400 8700 4400
Wire Wire Line
	3750 2900 3750 2650
Wire Wire Line
	3750 3200 3750 3350
Wire Wire Line
	5200 3050 5200 3150
$Comp
L +2V5 #PWR016
U 1 1 55533DF1
P 4900 4000
F 0 "#PWR016" H 4900 3850 50  0001 C CNN
F 1 "+2V5" H 4900 4140 50  0000 C CNN
F 2 "" H 4900 4000 60  0000 C CNN
F 3 "" H 4900 4000 60  0000 C CNN
	1    4900 4000
	1    0    0    -1  
$EndComp
$Comp
L C C1
U 1 1 55534566
P 3150 4500
F 0 "C1" H 3175 4600 50  0000 L CNN
F 1 "2.2n" H 3175 4400 50  0000 L CNN
F 2 "Capacitors_SMD:C_0805" H 3188 4350 30  0001 C CNN
F 3 "" H 3150 4500 60  0000 C CNN
	1    3150 4500
	1    0    0    -1  
$EndComp
$Comp
L C C3
U 1 1 555345A6
P 4000 4000
F 0 "C3" H 4025 4100 50  0000 L CNN
F 1 "2.2n" H 4025 3900 50  0000 L CNN
F 2 "Capacitors_SMD:C_0805" H 4038 3850 30  0001 C CNN
F 3 "" H 4000 4000 60  0000 C CNN
	1    4000 4000
	0    1    1    0   
$EndComp
$EndSCHEMATC
