G04 #@! TF.FileFunction,Soldermask,Top*
%FSLAX46Y46*%
G04 Gerber Fmt 4.6, Leading zero omitted, Abs format (unit mm)*
G04 Created by KiCad (PCBNEW 0.201505091716+5648~23~ubuntu14.04.1-product) date dom 10 may 2015 23:49:18 COT*
%MOMM*%
G01*
G04 APERTURE LIST*
%ADD10C,0.300000*%
%ADD11R,1.300000X2.100000*%
%ADD12R,2.100000X1.300000*%
%ADD13R,1.400000X1.650000*%
%ADD14R,1.650000X1.400000*%
%ADD15R,2.127200X2.127200*%
%ADD16O,2.127200X2.127200*%
%ADD17R,2.127200X2.432000*%
%ADD18O,2.127200X2.432000*%
%ADD19R,2.432000X2.432000*%
%ADD20O,2.432000X2.432000*%
%ADD21R,2.432000X2.127200*%
%ADD22O,2.432000X2.127200*%
%ADD23R,0.908000X1.543000*%
%ADD24R,1.797000X1.797000*%
%ADD25C,1.797000*%
G04 APERTURE END LIST*
D10*
D11*
X125495000Y-75375000D03*
X122595000Y-75375000D03*
X135420000Y-69430000D03*
X138320000Y-69430000D03*
X135390000Y-64200000D03*
X138290000Y-64200000D03*
D12*
X132280000Y-69420000D03*
X132280000Y-66520000D03*
X132280000Y-64200000D03*
X132280000Y-61300000D03*
D11*
X100980000Y-67610000D03*
X103880000Y-67610000D03*
D12*
X94410000Y-69000000D03*
X94410000Y-66100000D03*
X94270000Y-73260000D03*
X94270000Y-76160000D03*
D11*
X106790000Y-67610000D03*
X109690000Y-67610000D03*
X109910000Y-82760000D03*
X107010000Y-82760000D03*
X100256000Y-82550000D03*
X97356000Y-82550000D03*
D12*
X90130000Y-55080000D03*
X90130000Y-52180000D03*
X90130000Y-57360000D03*
X90130000Y-60260000D03*
D11*
X108980000Y-54450000D03*
X106080000Y-54450000D03*
D12*
X96260000Y-46890000D03*
X96260000Y-49790000D03*
X93100000Y-49790000D03*
X93100000Y-46890000D03*
D13*
X103740000Y-54200000D03*
X101740000Y-54200000D03*
X108860000Y-57300000D03*
X106860000Y-57300000D03*
D14*
X110490000Y-50022000D03*
X110490000Y-48022000D03*
D13*
X109420000Y-79240000D03*
X111420000Y-79240000D03*
X104632000Y-82550000D03*
X102632000Y-82550000D03*
D14*
X109690000Y-76520000D03*
X109690000Y-74520000D03*
D13*
X102100000Y-63280000D03*
X104100000Y-63280000D03*
D14*
X109690000Y-70530000D03*
X109690000Y-72530000D03*
D13*
X135400000Y-60300000D03*
X137400000Y-60300000D03*
X135500000Y-72580000D03*
X137500000Y-72580000D03*
D15*
X104220000Y-90580000D03*
D16*
X104220000Y-88040000D03*
X106760000Y-90580000D03*
X106760000Y-88040000D03*
X109300000Y-90580000D03*
X109300000Y-88040000D03*
X111840000Y-90580000D03*
X111840000Y-88040000D03*
X114380000Y-90580000D03*
X114380000Y-88040000D03*
X116920000Y-90580000D03*
X116920000Y-88040000D03*
D15*
X85080000Y-90370000D03*
D16*
X85080000Y-87830000D03*
X87620000Y-90370000D03*
X87620000Y-87830000D03*
X90160000Y-90370000D03*
X90160000Y-87830000D03*
X92700000Y-90370000D03*
X92700000Y-87830000D03*
D15*
X120270000Y-45230000D03*
D16*
X120270000Y-42690000D03*
X122810000Y-45230000D03*
X122810000Y-42690000D03*
X125350000Y-45230000D03*
X125350000Y-42690000D03*
D17*
X132640000Y-90500000D03*
D18*
X130100000Y-90500000D03*
X127560000Y-90500000D03*
X125020000Y-90500000D03*
X122480000Y-90500000D03*
D19*
X136110000Y-80900000D03*
D20*
X136110000Y-78360000D03*
D21*
X72650000Y-90960000D03*
D22*
X72650000Y-88420000D03*
X72650000Y-85880000D03*
X72650000Y-83340000D03*
X72650000Y-80800000D03*
X72650000Y-78260000D03*
X72650000Y-75720000D03*
X72650000Y-73180000D03*
X72650000Y-70640000D03*
X72650000Y-68100000D03*
X72650000Y-65560000D03*
X72650000Y-63020000D03*
X72650000Y-60480000D03*
X72650000Y-57940000D03*
X72650000Y-55400000D03*
X72650000Y-52860000D03*
X72650000Y-50320000D03*
X72650000Y-47780000D03*
X72650000Y-45240000D03*
X72650000Y-42700000D03*
D23*
X99500000Y-51252000D03*
X100770000Y-51252000D03*
X102040000Y-51252000D03*
X103310000Y-51252000D03*
X104580000Y-51252000D03*
X105850000Y-51252000D03*
X107120000Y-51252000D03*
X107120000Y-44902000D03*
X105850000Y-44902000D03*
X103310000Y-44902000D03*
X102040000Y-44902000D03*
X100770000Y-44902000D03*
X99500000Y-44902000D03*
X104580000Y-44902000D03*
X98670000Y-77842000D03*
X99940000Y-77842000D03*
X101210000Y-77842000D03*
X102480000Y-77842000D03*
X103750000Y-77842000D03*
X105020000Y-77842000D03*
X106290000Y-77842000D03*
X106290000Y-71492000D03*
X105020000Y-71492000D03*
X102480000Y-71492000D03*
X101210000Y-71492000D03*
X99940000Y-71492000D03*
X98670000Y-71492000D03*
X103750000Y-71492000D03*
D21*
X87280000Y-72530000D03*
D22*
X87280000Y-75070000D03*
X87280000Y-77610000D03*
D17*
X122445000Y-79825000D03*
D18*
X124985000Y-79825000D03*
X127525000Y-79825000D03*
D24*
X118440000Y-53270000D03*
D25*
X118440000Y-55810000D03*
X118440000Y-58350000D03*
X118440000Y-60890000D03*
X118440000Y-63430000D03*
X118440000Y-65970000D03*
X118440000Y-68510000D03*
X126060000Y-68510000D03*
X126060000Y-65970000D03*
X126060000Y-63430000D03*
X126060000Y-60890000D03*
X126060000Y-58350000D03*
X126060000Y-55810000D03*
X126060000Y-53270000D03*
D14*
X90280000Y-48920000D03*
X90280000Y-46920000D03*
M02*
